{
  "data": [
    {
      "id": 1,
      "contents": "Almost $1.5 million in external funding from a dozen + contracts with Idaho Natiaonl Laboratory, Oak Ridge National Laboratory, and Los Alamos National Laboratory"
    },
    {
      "id": 2,
      "contents": "Trained more than a dozen students, including graduating a handful of PhD and MS students"
    },
    {
      "id": 3,
      "contents": "Over 30 peer-reviewed publications"
    },
    {
      "id": 4,
      "contents": "Dr. Kerby has developed and taught Advanced AI Methods, Applied Neural Networks, Data Science and Applied Machine Learning, Scientific Computing, and Modern Nuclear Computing; taught Data Structures and Algorithms, Introduction to Python, Introduction to Informatics and Analytics, and Monte Carlo Methods and Applications"
    },
    {
      "id": 5,
      "contents": "Dr. Kerby was nominated to be American Nuclear Society Mathematics and Computation division chair-elect"
    },
    {
      "id": 6,
      "contents": "Dr. Kerby, invited member of panel, “Current Issues in Computational Methods - Roundtable for Mathematics and Computation Division,” American Nuclear Society Winter Meeting, December 1, 2021, Washington, D.C., USA"
    },
    {
      "id": 7,
      "contents": "Dr. Kerby, gave one-day “Introduction to Data Science” workshop in CAES May 2019 with INL collaborator Josh Peterson; developed two-day “Introduction to Data Science and Machine Learning” workshop given in August 2019"
    },
    {
      "id": 8,
      "contents": "Dr. Kerby, invited speaker, “CEM and LAQGSM Event Generators: Modern Software Development”, at the Cross Sections for Cosmic Rays @ CERN (XSCRC2019), November 2019 in CERN, Geneva, Switzerland"
    },
    {
      "id": 9,
      "contents": "Dr. Kerby, invited workshop, “Introduction to Data Science with Python”, at the American Nuclear Society Student Conference, April 2019 in Richmond, VA"
    },
    {
      "id": 10,
      "contents": "Dr. Kerby, invited member of panel, “Thermal Hydraulics Applications of Machine Learning and Data Science”, at the American Nuclear Society Winter Meeting, November 2018 in Orlando, FL"
    },
    {
      "id": 11,
      "contents": "Dr. Kerby, first Place in the IEEE Big Data and IEEE Brain Hackathon, July 2018 in Tokyo, Japan"
    }
  ]
}
